…
``` r
distinct(df, common)
```

    ## # A tibble: 25 x 1
    ##    common                  
    ##    <chr>                   
    ##  1 <NA>                    
    ##  2 American.robin          
    ##  3 unknown                 
    ##  4 Swainsons.thrush        
    ##  5 U                       
    ##  6 Douglas.squirrel        
    ##  7 sooty.grouse            
    ##  8 douglas.squirrel        
    ##  9 northern.flying.squirrel
    ## 10 Rat                     
    ## # … with 15 more rows
…
