…
Diet diversity \~ forest type richness

    ## # A tibble: 4 x 7
    ##   size                r.squared adj.r.squared sigma statistic p.value    df
    ##   <chr>                   <dbl>         <dbl> <dbl>     <dbl>   <dbl> <int>
    ## 1 breeding area           0.276         0.196 0.143      3.43  0.0969     2
    ## 2 breeding home range     0.459         0.399 0.123      7.64  0.0220     2
    ## 3 maximum range           0.400         0.333 0.130      6.00  0.0368     2
    ## 4 PFA                     0.208         0.120 0.149      2.37  0.158      2

Diet diversity \~ dominant forest type

    ## # A tibble: 22 x 6
    ##    size                term               estimate std.error statistic p.value
    ##    <chr>               <chr>                 <dbl>     <dbl>     <dbl>   <dbl>
    ##  1 breeding area       (Intercept)           0.298     0.113     2.64   0.0386
    ##  2 breeding area       dominant.becCWHds1    0.210     0.138     1.52   0.180 
    ##  3 breeding area       dominant.becCWHms1    0.284     0.146     1.95   0.0987
    ##  4 breeding area       dominant.becCWHvm2    0.202     0.195     1.04   0.340 
    ##  5 breeding area       dominant.becIDFww     0.184     0.195     0.940  0.383 
    ##  6 breeding home range (Intercept)           0.298     0.106     2.81   0.0310
    ##  7 breeding home range dominant.becCWHds1    0.143     0.150     0.954  0.377 
    ##  8 breeding home range dominant.becCWHms1    0.281     0.126     2.24   0.0665
    ##  9 breeding home range dominant.becCWHvm1    0.202     0.184     1.10   0.313 
    ## 10 breeding home range dominant.becIDFww     0.184     0.184     1.00   0.356 
    ## # ... with 12 more rows
…
