…
occupied
```

    ## # A tibble: 70 x 5
    ## # Rowwise:  site, name
    ##    site  name           years.surveyed years.occupied proportion.occupied
    ##    <chr> <chr>                   <int>          <int>               <dbl>
    ##  1 GIO   Giovanno                    7              5               0.714
    ##  2 DCR   Dipper Creek                6              3               0.5  
    ##  3 HAS   Haslam                      6              1               0.167
    ##  4 PWD   Powell Daniels              6              5               0.833
    ##  5 RLK   Ruby Lake                   6              6               1    
    ##  6 TCR   Turbid Creek                6              5               0.833
    ##  7 WCR   Wedge Creek                 6              5               0.833
    ##  8 BWC   Brew Creek                  5              1               0.2  
    ##  9 JVC   Jarvis                      5              0               0    
    ## 10 NAN   Nanton                      5              1               0.2  
    ## # ... with 60 more rows
…
