…
# Fix occupancy.
sc.sites <- sc.sites %>% 
  mutate_at(.vars=vars(st.19, st.18),
            .funs=funs(.=case_when(
              . == 'Not Occupied' ~ 1,
              . == 'Breeding' ~ 3,
              . == 'Resident' ~ 2,
              TRUE ~ NA_real_
            ))) %>% 
  dplyr::select(site, status.2018=st.18_., status.2019=st.19_., old.name)

sc.sites %>% dplyr::select(-old.name) %>% print()
```

    ## # A tibble: 28 x 3
    ##    site          status.2018 status.2019
    ##    <chr>               <dbl>       <dbl>
    ##  1 Dewdney Creek           3           1
    ##  2 Ford Mountain           1           3
    ##  3 Mt Holden               1           1
    ##  4 Silver                  2           1
    ##  5 Clowhom                 3           3
    ##  6 Duck Lake               1           1
    ##  7 Freil                   2           3
    ##  8 Giovanno                2           1
    ##  9 Granite Mt              1           3
    ## 10 Haslam                  1           1
    ## # … with 18 more rows
…
