…
# Calculate counts per group per zone per source.
zone.counts <- left_join(diet.items, centroids.sf, by=c('site')) %>% 
  group_by(source) %>% nest() %>% 
  mutate(count=map(data, function(data) {
    data %>% group_by(zone, group) %>% 
      mutate(count=n()) %>% 
      select(zone, group, count) %>% 
      distinct()
  })) %>% 
  unnest(count) %>% select(!data)

zone.counts
```

    ## # A tibble: 38 x 4
    ## # Groups:   source [3]
    ##    source zone  group  count
    ##    <chr>  <chr> <chr>  <int>
    ##  1 R      cs    bird      23
    ##  2 R      tz    corvid     6
    ##  3 R      cs    corvid     3
    ##  4 R      tz    bird      18
    ##  5 R      tz    grouse    22
    ##  6 R      cs    grouse    19
    ##  7 R      tz    thrush     6
    ##  8 R      cs    thrush     2
    ##  9 R      tz    hare      11
    ## 10 R      cs    hare       1
    ## # ... with 28 more rows
…
