…
# Look at it.
territory.quality
```

    ## # A tibble: 44 x 6
    ## # Rowwise:  site, name
    ##    site  name          years.surveyed years.detect years.no.detect quality.index
    ##    <chr> <chr>                  <int>        <int>           <int>         <dbl>
    ##  1 BWC   Brew Creek                 5            1               4         0.2  
    ##  2 BRO   Brohm                      4            1               3         0.25 
    ##  3 CLW   Clowhom                    4            3               1         0.75 
    ##  4 DWC   Dewdney Creek              2            1               1         0.5  
    ##  5 DCR   Dipper Creek               6            3               3         0.5  
    ##  6 FMT   Fire Mountain              2            2               0         1    
    ##  7 FRE   Freil                      3            2               1         0.667
    ##  8 GIO   Giovanno                   7            5               2         0.714
    ##  9 GCR   Glacial Creek              2            1               1         0.5  
    ## 10 GLK   Glacier Lake               2            1               1         0.5  
    ## # ... with 34 more rows
…
