…
    ## [1] 1078

``` r
st.diet.items %>% filter(method == 'camera') %>% nrow()
```

    ## [1] 703

``` r
st.diet.items %>% filter(method == 'camera') %>% 
  distinct(class, order, family, genus, species, category, mass) %>% 
  arrange(class, order, family, genus, species, category, mass)
```

    ## # A tibble: 30 x 7
    ##    class order         family      genus       species     category       mass
    ##    <chr> <chr>         <chr>       <chr>       <chr>       <chr>         <dbl>
    ##  1 Aves  Columbiformes Columbidae  Patagioenas fasciata    large bird    379. 
    ##  2 Aves  Galliformes   Phasianidae Bonasa      umbellus    large bird    523. 
    ##  3 Aves  Galliformes   Phasianidae Dendragapus fuliginosus large bird   1056. 
    ##  4 Aves  Galliformes   Phasianidae Unknown     unknown     large bird    789. 
    ##  5 Aves  Galliformes   Phasianidae Unknown     unknown     small mammal   34.4
    ##  6 Aves  Passeriformes Corvidae    Cyanocitta  stelleri    medium bird   128  
    ##  7 Aves  Passeriformes Corvidae    Perisoreus  canadensis  medium bird    70.2
    ##  8 Aves  Passeriformes Picidae     Unknown     unknown     large bird    789. 
    ##  9 Aves  Passeriformes Picidae     Unknown     unknown     small mammal   34.4
    ## 10 Aves  Passeriformes Turdidae    Catharus    ustulatus   small bird     29.8
    ## # ... with 20 more rows
…
I had to add `filter(!is.na(mass))` because MTC and MTF were turning up
as `NA`s, presumably because some items didn’t get the correct mass. And
indeed, these numbers are the same as those in “squirrel forest”
*except* for MTC and MTF–I dropped some items and it changed their
numbers.

So what items are wrong?

``` r
ot.diet.items %>%
  distinct(class, family, genus, species, group, mass) %>% 
  arrange(class, family, genus, species, group, mass)
```

    ## # A tibble: 27 x 6
    ##    class family      genus       species     group        mass
    ##    <chr> <chr>       <chr>       <chr>       <chr>       <dbl>
    ##  1 Aves  Columbidae  Patagioenas fasciata    Large bird  379. 
    ##  2 Aves  Corvidae    Cyanocitta  stelleri    Medium bird 128  
    ##  3 Aves  Corvidae    Perisoreus  canadensis  Medium bird  70.2
    ##  4 Aves  Phasianidae Bonasa      umbellus    Large bird  523. 
    ##  5 Aves  Phasianidae Dendragapus fuliginosus group        NA  
    ##  6 Aves  Phasianidae Unknown     unknown     Small bird   29.8
    ##  7 Aves  Picidae     Unknown     unknown     Medium bird  85.1
    ##  8 Aves  Turdidae    Catharus    ustulatus   Small bird   29.8
    ##  9 Aves  Turdidae    Ixoreus     naevius     Medium bird  79.4
    ## 10 Aves  Turdidae    Turdus      migratorius Medium bird  79.9
    ## # ... with 17 more rows
…
``` r
# Bring in camera data.
nw.diet.items <- read_csv('../data/interim/cameras_20210315.csv', guess_max=7000) %>% 
  ## filter only records with at least size assigned...
  filter(size != 'U')
# Note that this doesn't have biomass data.

# Pull out 2019 data for comparison.
nw.diet.items %>% filter(year(datetime) == 2019) %>% 
  distinct(class, order, family, genus, species, size) %>% 
  arrange(class, order, family, genus, species, size)
```

    ## # A tibble: 27 x 6
    ##    class order         family      genus       species     size 
    ##    <chr> <chr>         <chr>       <chr>       <chr>       <chr>
    ##  1 Aves  Columbiformes Columbidae  Patagioenas fasciata    M    
    ##  2 Aves  Galliformes   Phasianidae Bonasa      umbellus    L    
    ##  3 Aves  Galliformes   Phasianidae Dendragapus fuliginosus L    
    ##  4 Aves  Galliformes   Phasianidae Dendragapus fuliginosus S    
    ##  5 Aves  Passeriformes Corvidae    Cyanocitta  stelleri    M    
    ##  6 Aves  Passeriformes Corvidae    Perisoreus  canadensis  M    
    ##  7 Aves  Passeriformes Turdidae    Catharus    ustulatus   S    
    ##  8 Aves  Passeriformes Turdidae    Ixoreus     naevius     M    
    ##  9 Aves  Passeriformes Turdidae    Turdus      migratorius M    
    ## 10 Aves  Passeriformes Turdidae    Unknown     unknown     M    
    ## # ... with 17 more rows
